…
``` r
nyc_airbnb %>%
  filter(calculated_host_listings_count > 34)
```

    ## # A tibble: 35 × 17
    ##          id review_scores_location name    host_id host_name neighbourhood_group
    ##       <dbl>                  <dbl> <chr>     <dbl> <chr>     <chr>              
    ##  1 15057686                     NA Home 4…  2.64e7 Stat      Brooklyn           
    ##  2 15080936                     NA Home 4…  2.64e7 Stat      Brooklyn           
    ##  3 14776203                     10 Home 4…  2.64e7 Stat      Brooklyn           
    ##  4 15074005                     NA Home 4…  2.64e7 Stat      Brooklyn           
    ##  5  5866656                     NA Home 4…  2.64e7 Stat      Brooklyn           
    ##  6  5538353                     NA Home 4…  2.64e7 Stat      Brooklyn           
    ##  7  5632551                     10 Home 4…  2.64e7 Stat      Brooklyn           
    ##  8  7788565                     NA Home 4…  2.64e7 Stat      Brooklyn           
    ##  9  7789408                      9 Home4 …  2.64e7 Stat      Brooklyn           
    ## 10  7789213                     10 Home 4…  2.64e7 Stat      Brooklyn           
    ## # ℹ 25 more rows
    ## # ℹ 11 more variables: neighbourhood <chr>, lat <dbl>, long <dbl>,
    ## #   room_type <chr>, price <dbl>, minimum_nights <dbl>,
    ## #   number_of_reviews <dbl>, last_review <date>, reviews_per_month <dbl>,
    ## #   calculated_host_listings_count <dbl>, availability_365 <dbl>
…
``` r
nyc_airbnb |> 
  filter(neighbourhood_group == "Manhattan", 
         price < 1000, 
         room_type == "Entire home/apt") |>
  group_by(neighbourhood) |> 
  summarize(mean_price = mean(price)) |> 
  arrange(desc(mean_price))
```

    ## # A tibble: 32 × 2
    ##    neighbourhood      mean_price
    ##    <chr>                   <dbl>
    ##  1 Tribeca                  358.
    ##  2 NoHo                     312.
    ##  3 Flatiron District        307.
    ##  4 SoHo                     296.
    ##  5 Theater District         282.
    ##  6 Midtown                  276.
    ##  7 Battery Park City        271.
    ##  8 Greenwich Village        256.
    ##  9 Chelsea                  255.
    ## 10 Financial District       250.
    ## # ℹ 22 more rows
…
